
{
  "list":
    {
      "lastUpdate": "23/06/22",
      "diaspora":
        {
          "population": "726.710",
          "activeUsers": "29.614",
          "podsNum": "170"
        },
      "friendica":
        {
          "population": "16.514",
          "activeUsers": "7.691",
          "podsNum": "350"
        },
      "hubzilla":
        {
          "population": "4.603",
          "activeUsers": "2.221",
          "podsNum": "104"
        },
      "mastodon":
        {
          "population": "4.016.968",
          "activeUsers": "1.393.203",
          "podsNum": "4.271"
        },
      "gnusocial":
        {
          "population": "6.452",
          "activeUsers": "2.359",
          "podsNum": "26"
        },
      "pleroma":
        {
          "population": "86.864",
          "activeUsers": "18.135",
          "podsNum": "1.054"
        },
      "misskey":
        {
          "population": "9.281",
          "activeUsers": "",
          "podsNum": "415"
        },
      "peertube":
        {
          "population": "347.216",
          "activeUsers": "120.814",
          "podsNum": "1.225"
        },
      "pixelfed":
        {
          "population": "92.283",
          "activeUsers": "33.223",
          "podsNum": "297"
        },
      "funkwhale":
        {
          "population": "6.917",
          "activeUsers": "1.963",
          "podsNum": "132"
        },
      "writefreely":
        {
          "population": "53.936",
          "activeUsers": "12.058",
          "podsNum": "474"
        },
      "plume":
        {
          "population": "22.304",
          "activeUsers": "",
          "podsNum": "65"
        },
      "mobilizon":
        {
          "population": "11.908",
          "activeUsers": "",
          "podsNum": "121"
        },
      "lemmy":
        {
          "population": "37.795",
          "activeUsers": "5.285",
          "podsNum": "72"
        },
        "gotosocial":
        {
          "population": "",
          "activeUsers": "",
          "podsNum": "63"
        },
        "owncast":
        {
          "population": "76",
          "activeUsers": "76",
          "podsNum": "87"
        },
        "bookwyrm":
        {
          "population": "462",
          "activeUsers": "409",
          "podsNum": "33"
        },
      "fediverse":
        {
          "population": "5.440.289",
          "activeUsers": "1.627.051",
          "podsNum": "8.959"
        }
    }
}
